{
    "cameraData": {
        "camera": {
            "fov": 1.1426670551300049,
            "near": 0.001
        },
        "transform": {
            "pos": {
                "x": -0.006828125100582838,
                "y": 0.12447813898324966,
                "z": 0.9557041525840759
            },
            "rot": {
                "x": -0.1318770796060562,
                "y": 0.0,
                "z": 0.0
            }
        }
    },
    "light": {
        "attenuationLin": 2.0,
        "attenuationQuad": 3.0,
        "lightType": 2,
        "position": {
            "x": 0.28999999165534973,
            "y": 0.8299999833106995,
            "z": 0.3700000047683716
        }
    },
    "material": {
        "metallic": 0.10999999940395355,
        "roughness": 0.20999999344348907
    },
    "objectData": {
        "transform": {
            "scale": {
                "x": 0.5,
                "y": 0.5,
                "z": 0.5
            }
        }
    },
    "storageType": "HERE"
}