{
    "cameraData": {
        "camera": {
            "far": 100.0,
            "fov": 1.5707963705062866,
            "near": 0.10000000149011612
        },
        "transform": {
            "pos": {
                "x": -0.5025995373725891,
                "y": 0.125,
                "z": 0.7828606963157654
            },
            "rotAngle": -0.3503129780292511,
            "rotAxis": {
                "x": 0.0,
                "y": 1.0,
                "z": 0.0
            },
            "scale": {
                "x": 1.0,
                "y": 1.0,
                "z": 1.0
            }
        },
        "upDownRot": {
            "pos": {
                "x": 0.0,
                "y": 0.0,
                "z": 0.0
            },
            "rotAngle": 0.0,
            "rotAxis": {
                "x": -1.0,
                "y": 0.0,
                "z": 0.0
            },
            "scale": {
                "x": 1.0,
                "y": 1.0,
                "z": 1.0
            }
        }
    },
    "envGlobalAmbient": {
        "x": 0.0010000000474974513,
        "y": 0.0010000000474974513,
        "z": 0.0010000000474974513
    },
    "light": {
        "attenuationConst": 1.0,
        "attenuationLin": 2.0,
        "attenuationQuad": 3.0,
        "color": {
            "x": 1.0,
            "y": 1.0,
            "z": 1.0
        },
        "lightType": 2,
        "position": {
            "x": -0.25999999046325684,
            "y": 0.3100000023841858,
            "z": 0.5600000023841858
        },
        "spotCutoff": 3.1415927410125732,
        "spotDir": {
            "x": 0.0,
            "y": 0.0,
            "z": -1.0
        },
        "spotExponent": 0.0
    },
    "material": {
        "albedo": {
            "x": 1.0,
            "y": 1.0,
            "z": 1.0
        },
        "ao": 1.0,
        "metallic": 0.4000000059604645,
        "roughness": 0.6000000238418579
    },
    "mesh": 0,
    "objectData": {
        "transform": {
            "pos": {
                "x": 0.0,
                "y": 0.0,
                "z": 0.0
            },
            "rotAngle": 0.0,
            "rotAxis": {
                "x": 0.0,
                "y": 0.0,
                "z": 1.0
            },
            "scale": {
                "x": 0.5,
                "y": 0.5,
                "z": 0.5
            }
        }
    },
    "storageType": "HERE",
    "style": 0
}