{
    "cameraData": {
        "transform": {
            "pos": {
                "x": 0.027000000700354576,
                "y": 0.125,
                "z": 0.7089999914169312
            },
            "rotAngle": 0.1940000057220459,
            "rotAxis": {
                "x": 0.0,
                "y": 1.0,
                "z": 0.0
            }
        }
    },
    "light": {
        "attenuationLin": 2.0,
        "attenuationQuad": 3.0,
        "lightType": 2,
        "position": {
            "x": -0.25999999046325684,
            "y": 0.3100000023841858,
            "z": 0.5600000023841858
        }
    },
    "material": {
        "metallic": 0.4000000059604645,
        "roughness": 0.6000000238418579
    },
    "objectData": {
        "transform": {
            "scale": {
                "x": 0.5,
                "y": 0.5,
                "z": 0.5
            }
        }
    },
    "storageType": "HERE"
}